Sentiment Analysis
…
reviews_tidy <- select(reviews_tidy, -maxscore)

Next we can do an inner join to filter out words relating the sentiments joy and anger. The following results are the words used in reviews of Apple products that the NRC lexicon determined conveyed those two sentiments, respectively. They were then sorted by frequency.

nrc_joy <- get_sentiments("nrc") %>%
  filter(sentiment == "joy")
nrc_anger <- get_sentiments("nrc") %>%
  filter(sentiment == "anger")

reviews_tidy %>%
  filter(manufacturer == "apple") %>%
  inner_join(nrc_joy) %>%
  count(word, sort = T)

# A tibble: 331 x 2
   word          n
   <chr>     <int>
 1 good       7143
 2 love       3658
 3 happy      2353
 4 excellent  2091
 5 perfect    1509
 6 money      1216
 7 pleased     802
 8 daughter    724
 9 satisfied   664
10 deal        560
#  with 321 more rows

reviews_tidy %>%
  filter(manufacturer == "apple") %>%
  inner_join(nrc_anger) %>%
  count(word, sort = T)

# A tibble: 383 x 2
   word             n
   <chr>        <int>
 1 battery       3682
 2 money         1216
 3 bad            816
 4 disappointed   630
 5 broken         329
 6 damage         191
 7 fits           168
 8 hate           165
 9 terrible       159
10 horrible       147
#  with 373 more rows
…
