OPER 655 Project
…
Word Count and TFIDF

Identifying common words and term frequencies related to their document frequencies are simple, but important to be able to characterize an episode. From the Game of Thrones text, we see that there are kings, queens, soldiers, lords, archers and soldiers, clearly showing that this may be in a medieval or non-modern society. It also shows which characters are more frequently referenced and therefore which are the most important based on their frequency. Jon, Cersei, Gendry, and Tyrion are all important characters in the text which can be deduced by their frequency. The first plot shows the most common words by episode, giving an idea about which characters play a large role in certain episodes.

## Joining, by = "word"

## # A tibble: 1,699 x 2
##    word        n
##    <chr>   <int>
##  1 soldier   113
##  2 queen      91
##  3 jon        55
##  4 north      52
##  5 people     51
##  6 cersei     46
##  7 king       45
##  8 die        43
##  9 tyrion     43
## 10 lord       40
## # ... with 1,689 more rows

## Joining, by = "word"

## Selecting by n

## # A tibble: 77 x 3
## # Groups:   Episode [6]
##    Episode                word        n
##    <fct>                  <chr>   <int>
##  1 The Long Night         soldier    55
##  2 The Bells              soldier    46
##  3 The Last of the Starks queen      28
##  4 The Bells              ring       22
##  5 The Last of the Starks lord       21
##  6 The Bells              bells      20
##  7 The Last of the Starks people     20
##  8 Winterfell             queen      20
##  9 The Iron Throne        queen      19
## 10 The Last of the Starks north      19
## # ... with 67 more rows
…
