OPER 655 Student Project Repor
…
Next, words that represent sentiments for joy and anger were loaded into R from the tidytext package. Then, the words in the script are compared to these and displayed.

nrc_joy <- get_sentiments("nrc") %>%
  filter(sentiment == "joy")
nrc_anger <- get_sentiments("nrc") %>%
  filter(sentiment == "anger")

text %>%
  inner_join(nrc_joy) %>%
  count(word, sort = T)

## Joining, by = "word"

## # A tibble: 75 x 2
##    word        n
##    <chr>   <int>
##  1 buddy      83
##  2 good       36
##  3 love       21
##  4 baby       11
##  5 sing       11
##  6 fun         8
##  7 special     8
##  8 tickle      8
##  9 tree        8
## 10 food        7
## # ... with 65 more rows

text %>%
  inner_join(nrc_anger) %>%
  count(word, sort = T)

## Joining, by = "word"

## # A tibble: 46 x 2
##    word        n
##    <chr>   <int>
##  1 elf        36
##  2 bad        10
##  3 tree        8
##  4 fight       7
##  5 evil        4
##  6 cane        3
##  7 broken      2
##  8 crazy       2
##  9 hurt        2
## 10 hurting     2
## # ... with 36 more rows
…
