Text Analysis of the Marvel Cinematic Universe (MCU)
…
mcu_unnested <- tidytext::unnest_tokens(text_mcu, word, text)

NOTE: I had to remove rocket and fury because those were character names and do not reflect sentiment.

#Top 10 Positive Sentiment Words
mcu_unnested %>%
  anti_join(tibble::tibble(word = c("rocket")))%>%
  inner_join(nrc_joy) %>%
  count(word, sort = T)

# A tibble: 385 x 2
   word        n
   <chr>   <int>
 1 good      414
 2 happy     238
 3 hope      232
 4 god       169
 5 love      119
 6 green     116
 7 kind      115
 8 finally   106
 9 friend    101
10 found      88
# ... with 375 more rows

#Top 10 Negative Sentiment Words
mcu_unnested %>%
  anti_join(tibble::tibble(word = c("rocket", "fury")))%>%
  inner_join(nrc_anger) %>%
  count(word, sort = T)

# A tibble: 592 x 2
   word        n
   <chr>   <int>
 1 soldier   176
 2 fight     165
 3 stone     153
 4 hell      152
 5 cross     145
 6 gun       128
 7 bad       109
 8 hit       102
 9 death      85
10 blast      84
# ... with 582 more rows
…
