OPER 655 Student Project Report
…
action_words <- action_words %>%
  anti_join(stop_words, by = "word")

Analysis

Three different types of analysis were used: Term Frequency, Document Summarization, and Sentiment Analysis. Each technique attempts to answer the question stated above. # Term Frequency The first part of this analysis is fairly basic but can provide a lot of insight into what type of document you have and the topics it covers. Since our dataset has a considerable amount of everyday words that do not give insight, those words were removed for this analysis. Since not all common words were included in the stop_words dictionary, a few other words were added in another data set and removed from our main dataset. Note that the word ill is never used in the data. Rather the word Ill is used but since we removed punctuation and made all letters lower case, it was converted to ill.

#Outputs most common words by count (no filter)
# DF_word %>% dplyr::count(as.factor(word), sort = TRUE)
#stop words and other common words that dont provide insight are ommitted
dumb_words=c("ill","youre","dont","","hey","ive", "didnt", "lot", "yeah", "im", "gonna", "uh", "ha", "theyre", "hes")
data.frame(word=DF_word[!(DF_word$word%in%stop_words$word | DF_word$word%in%dumb_words),])%>%
  dplyr::count(word, sort = TRUE)

# A tibble: 1,329 x 2
   word           n
   <fct>      <int>
 1 people        35
 2 york          20
 3 day           17
 4 town          15
 5 doctor        14
 6 drinking      14
 7 gay           14
 8 girlfriend    14
 9 kid           14
10 school        13
#  with 1,319 more rows

These words with higher frequency give a clue of the topics of some of the jokes referenced in the text. For example, one joke discusses a doctors visit. It is also interesting how the word york appears without the word new. My only thought is that the word new may be in the stop_words data frame because it should appear more than york and town considering the two phrases New York and New in Town.

data.frame(word=action_words$word[!(action_words$word %in%stop_words$word)])%>%
  dplyr::count(word, sort = TRUE) 

# A tibble: 470 x 2
   word           n
   <fct>      <int>
 1 audience     168
 2 laughs       111
 3 hand          46
 4 voice         44
 5 head          40
 6 john          33
 7 laughter      32
 8 speaks        28
 9 tone          28
10 expression    27
#  with 460 more rows

These results are reassuring because the feature of comedy does not seem to be unnoticed.

Above, we only considered unigrams. Below a few other options were considered for both the article dataset and action dataset.

#Trigram and Quadgram
#applied because of "new in town"
trigram<-DF_block %>%
  unnest_tokens(token, word, token="ngrams", n=3)

trigram %>% dplyr::count(token, sort = TRUE)

# A tibble: 8,807 x 2
   token           n
   <chr>       <int>
 1 when i was     17
 2 i was a        15
 3 and i was      13
 4 and i go       12
 5 new in town    11
 6 a lot of       10
 7 and he said    10
 8 i was like     10
 9 in new york    10
10 ha ha ha        9
#  with 8,797 more rows

##Action
bigram<-data.frame(word=action_block)%>%
  unnest_tokens(token, word, token="ngrams", n=2)

bigram %>% dplyr::count(token, sort = TRUE)

# A tibble: 1,757 x 2
   token                 n
   <chr>             <int>
 1 audience laughs     108
 2 in a                 34
 3 audience laughter    31
 4 and speaks           22
 5 with a               22
 6 laughs audience      20
 7 to the               20
 8 turns head           20
 9 the side             16
10 light audience       15
#  with 1,747 more rows
…
For the sentiment analysis, the NRC dictionaries for words of joy and anger were imported. The words in the joy dictionary we will recognize as positive words and words in the anger dictionary we will recognize as negative words. Using these dictionaries, the positive and negative words of the article and action data sets are outputed based on frequency.

####Sentiment Analysis####
nrc_joy <- get_sentiments("nrc") %>%
  filter(sentiment == "joy")
nrc_anger <- get_sentiments("nrc") %>%
  filter(sentiment == "anger")

#article 
article_words %>%
  inner_join(nrc_anger) %>%
  count(word, sort = T)

# A tibble: 54 x 2
   word         n
   <chr>    <int>
 1 shit        11
 2 ill          6
 3 bad          5
 4 crazy        5
 5 murder       4
 6 asshole      3
 7 feeling      3
 8 homeless     3
 9 lawyer       3
10 lie          3
#  with 44 more rows

article_words %>%
  inner_join(nrc_joy) %>%
  count(word, sort = T)

# A tibble: 61 x 2
   word        n
   <chr>   <int>
 1 friend     10
 2 found       9
 3 love        8
 4 fun         7
 5 pretty      5
 6 sex         5
 7 angel       4
 8 child       4
 9 true        4
10 comfort     3
#  with 51 more rows

#sentiment of actions
action_words %>%
  inner_join(nrc_anger) %>%
  count(word, sort = T)

# A tibble: 21 x 2
   word            n
   <chr>       <int>
 1 pretending      8
 2 playful         3
 3 shot            3
 4 bully           2
 5 gun             2
 6 incredulous     2
 7 mocking         2
 8 obnoxious       2
 9 sentence        2
10 words           2
#  with 11 more rows

action_words %>%
  inner_join(nrc_joy) %>%
  count(word, sort = T)

# A tibble: 21 x 2
   word           n
   <chr>      <int>
 1 laughter      32
 2 child          9
 3 applause       5
 4 laughing       5
 5 confidence     3
 6 music          3
 7 playful        3
 8 smiling        3
 9 cheering       2
10 dance          2
#  with 11 more rows
…
